25

21
-1
102
3
-1
-1
108
-1

1
-1
45
22
2
44
-1
40

112
-1
108

85
13
2
1
-4
-2
5
-3
-1
-1

122
-1
108
-1
91
29
-1
32
-2
89

20
21
-2
22
-2
43
-1

90
13
-2
6
13
-1
10

55
-1
34

58
37
3
-3
-2
-1
25

3
-1
82
-1

91
5
-2
19
-1
-1
109

41
2
-2
-1
124
-1
23
66

113
-1
101
-1
52
-1
89
9

43
-1
101
-1
71
-1
108
-1
2

82
-1
12
16
72
-2
-1
-1
1
97

48
-1
111
-1
21
6
-2
-1
55
10

77
19
-1
-1
90

120
-1
37
9
-2
51
-2
-1
30

85
-1
121
-1
23
-1

10
26
-2
72
11
27
-4
-2
53
5

17
-1
49
27

19
-1
89
-1
12
-1

67
8
24
6
-2
-2
11

54
-1
6
20
17
8
-3
19

51
-1
109
-1
63
50
-2
-1
54
-1
