20

2
2
-1
-1

4
1
3
4
1
-1
-2

3
2
3
4
3
-1
-1
-1
-1
-1

4
4
4
4
4
-5
-4
-3
-2
-1

3
-1
3
3
2
-1
2
4
-2
-2

3
2
4
1
24
4
1
3
-4
-3
-2
-1
-1
-1

3
24
4
1

3
4
4
-1
3
1

8
8
8
-1
-1
-1
8
8
8

3
23
3
4
1
1
3
-3
-2

4
4
1
12
3
3
13
6
7
-4
-2
-3
-1

4
5
7
4
6
1
3
2
12
2
-2
-2
-2
-2
-1
-1

4
5
9
-2
3
2
2
-2

2
3
4
6
-4
-3
2
-3
-2
1

3
2
4
5
-2
-2
-1
-1

3
4
21
4

1
-1
1
-1
1
-1
1
-1
1
-1
1
-1

3
3
3
-3
-1
-1
4
4
-2
-1

21
2
2
12
-2
-2
4
-1
-2

12
12
12
12
12
12
-2
-2
-2
-1
-1
